{
  "project_info": {
    "project_number": "549733108078",
    "firebase_url": "https://showroom-app-tcc-1571472611934.firebaseio.com",
    "project_id": "showroom-app-tcc-1571472611934",
    "storage_bucket": "showroom-app-tcc-1571472611934.appspot.com"
  },
  "client": [
    {
      "client_info": {
        "mobilesdk_app_id": "1:549733108078:android:4bcfa136216aa525c7997f",
        "android_client_info": {
          "package_name": "com.showroomapp"
        }
      },
      "oauth_client": [
        {
          "client_id": "549733108078-oa4am2f5ki5s3fi3f5ugii4vo5befsvu.apps.googleusercontent.com",
          "client_type": 1,
          "android_info": {
            "package_name": "com.showroomapp",
            "certificate_hash": "88fe9b74f9391c521960ea7277b68aba8ca9a172"
          }
        },
        {
          "client_id": "549733108078-ui8dk9drfuutltgq33vi1m52ee0ajhjg.apps.googleusercontent.com",
          "client_type": 1,
          "android_info": {
            "package_name": "com.showroomapp",
            "certificate_hash": "a739e16da92b1e692b779cc55b1adbb073876f85"
          }
        },
        {
          "client_id": "549733108078-2g05srir1s7aprfkaqagds1t63q31ls0.apps.googleusercontent.com",
          "client_type": 1,
          "android_info": {
            "package_name": "com.showroomapp",
            "certificate_hash": "7a48e2487874cd121c1466077ba8abb5b508cb12"
          }
        },
        {
          "client_id": "549733108078-otfq9krmhgb6dvn1phv11hkb458kfhji.apps.googleusercontent.com",
          "client_type": 3
        }
      ],
      "api_key": [
        {
          "current_key": "AIzaSyDvf_S3OEPNqeANmNzJtwD3XHzEuASqEE8"
        }
      ],
      "services": {
        "appinvite_service": {
          "other_platform_oauth_client": [
            {
              "client_id": "549733108078-otfq9krmhgb6dvn1phv11hkb458kfhji.apps.googleusercontent.com",
              "client_type": 3
            }
          ]
        }
      }
    }
  ],
  "configuration_version": "1"
}