<?xml version="1.0" standalone="no"?>
<!DOCTYPE svg PUBLIC "-//W3C//DTD SVG 20010904//EN"
 "http://www.w3.org/TR/2001/REC-SVG-20010904/DTD/svg10.dtd">
<svg version="1.0" xmlns="http://www.w3.org/2000/svg"
 width="367.000000pt" height="167.000000pt" viewBox="0 0 367.000000 167.000000"
 preserveAspectRatio="xMidYMid meet">
<metadata>
Created by potrace 1.15, written by Peter Selinger 2001-2017
</metadata>
<g transform="translate(0.000000,167.000000) scale(0.100000,-0.100000)"
fill="#000000" stroke="none">
<path d="M1649 1349 c-37 -5 -100 -21 -140 -35 -76 -27 -285 -129 -376 -182
-41 -24 -71 -33 -150 -42 -251 -29 -471 -73 -543 -110 -20 -10 -50 -34 -67
-53 -30 -34 -81 -153 -70 -164 3 -3 23 8 44 25 29 23 60 34 126 48 68 13 98
24 127 48 70 55 51 66 -73 42 -97 -19 -68 0 44 28 120 30 242 51 394 67 l120
12 145 78 c171 92 298 145 389 165 97 20 555 19 657 -2 84 -17 350 -106 476
-159 77 -33 90 -35 189 -35 86 0 108 -3 113 -15 5 -13 -39 -15 -354 -15 -261
0 -366 3 -379 12 -24 15 -53 -6 -49 -35 3 -19 16 -19 568 -18 310 1 566 3 567
5 2 2 1 11 -3 20 -5 14 -25 16 -140 16 l-133 0 -19 43 -19 44 -69 6 c-38 4
-94 7 -126 7 -44 0 -86 12 -195 54 -193 75 -380 134 -460 146 -82 12 -501 11
-594 -1z"/>
<path d="M1590 1249 c-49 -9 -390 -177 -390 -191 0 -5 71 -7 168 -3 92 3 361
10 597 16 237 5 438 12 448 15 22 7 22 27 -1 47 -32 29 -191 98 -260 112 -75
16 -483 19 -562 4z"/>
<path d="M1137 979 c-24 -14 -22 -56 4 -64 12 -4 26 -2 32 4 8 8 154 11 487
11 l475 0 -40 -25 -40 -24 -287 -1 c-181 0 -289 4 -293 10 -11 17 -44 11 -55
-11 -9 -15 -8 -24 1 -35 13 -16 45 -19 54 -4 4 6 115 10 300 10 l293 0 71 40
70 40 441 0 c260 0 440 -4 440 -9 0 -5 3 -16 6 -25 6 -14 -24 -16 -284 -16
-183 0 -293 4 -297 10 -9 15 -41 12 -54 -4 -9 -11 -10 -20 -1 -35 11 -22 44
-28 55 -11 4 6 163 10 446 10 379 0 439 2 439 15 0 12 -22 15 -117 17 -114 3
-118 4 -121 26 -3 22 -3 22 147 22 149 0 151 0 139 20 -13 20 -24 20 -1136 20
-660 0 -1130 4 -1140 9 -11 6 -24 6 -35 0z"/>
<path d="M686 793 c-4 -13 -12 -23 -17 -23 -5 0 -9 -98 -9 -240 l0 -240 40 0
40 0 0 105 0 105 40 0 40 0 0 -105 0 -105 40 0 40 0 0 240 0 240 -40 0 -40 0
0 -100 0 -100 -40 0 -40 0 0 100 c0 92 -2 100 -19 100 -13 0 -21 8 -23 23 l-4
22 -8 -22z"/>
<path d="M367 759 c-15 -11 -32 -38 -38 -60 -19 -62 1 -109 82 -196 61 -64 70
-77 67 -106 -3 -27 -7 -33 -32 -35 -31 -4 -46 10 -46 46 0 23 -15 27 -57 16
-29 -8 -30 -47 -3 -92 25 -40 61 -55 120 -49 63 7 100 49 100 115 0 56 -16 85
-93 168 -57 61 -74 98 -58 122 4 8 19 12 32 10 19 -2 25 -10 27 -36 3 -25 7
-32 19 -28 8 3 26 6 39 6 20 0 24 5 24 30 0 42 -20 79 -51 96 -41 21 -102 18
-132 -7z"/>
<path d="M1065 771 c-11 -5 -29 -19 -40 -31 -19 -20 -20 -36 -20 -211 l0 -189
28 -27 c24 -24 35 -28 87 -28 52 0 63 4 87 28 l28 27 0 190 0 190 -27 26 c-28
29 -104 42 -143 25z m89 -87 c8 -20 8 -288 0 -308 -8 -21 -60 -21 -68 0 -8 20
-8 288 0 308 4 9 18 16 34 16 16 0 30 -7 34 -16z"/>
<path d="M2205 771 c-11 -5 -29 -19 -40 -31 -19 -20 -20 -36 -20 -211 l0 -189
28 -27 c24 -24 35 -28 87 -28 52 0 63 4 87 28 l28 27 0 190 0 190 -27 26 c-28
29 -104 42 -143 25z m89 -87 c8 -20 8 -288 0 -308 -8 -21 -60 -21 -68 0 -8 20
-8 288 0 308 4 9 18 16 34 16 16 0 30 -7 34 -16z"/>
<path d="M2545 771 c-11 -5 -29 -19 -40 -31 -19 -20 -20 -36 -20 -211 l0 -189
28 -27 c24 -24 35 -28 87 -28 52 0 63 4 87 28 l28 27 0 190 0 190 -27 26 c-28
29 -104 42 -143 25z m89 -87 c3 -9 6 -78 6 -154 0 -76 -3 -145 -6 -154 -8 -21
-60 -21 -68 0 -3 9 -6 78 -6 154 0 76 3 145 6 154 8 21 60 21 68 0z"/>
<path d="M1356 548 c18 -123 33 -231 34 -240 0 -15 9 -18 45 -18 25 0 45 1 46
3 0 1 8 63 18 137 l17 135 13 -100 c24 -192 17 -175 67 -175 24 0 44 2 44 4 0
6 59 407 65 444 6 32 5 32 -34 32 -45 0 -39 18 -65 -185 l-12 -100 -12 100
c-7 55 -15 119 -19 143 l-5 43 -42 -3 -41 -3 -14 -122 c-8 -68 -18 -123 -21
-123 -4 0 -13 56 -20 125 l-13 125 -42 0 -42 0 33 -222z"/>
<path d="M1810 530 l0 -240 40 0 40 0 0 95 c0 128 18 129 52 3 l25 -93 41 -3
c23 -2 42 0 42 5 0 4 -13 51 -29 105 l-28 96 21 21 c28 29 36 153 12 199 -23
44 -43 52 -135 52 l-81 0 0 -240z"/>
<path d="M2830 530 l0 -240 35 0 35 0 1 148 1 147 31 -147 31 -148 31 0 31 0
26 128 26 127 1 -127 1 -128 40 0 40 0 0 240 0 240 -54 0 -55 0 -10 -52 c-6
-29 -18 -93 -28 -143 l-17 -90 -30 143 -29 142 -54 0 -53 0 0 -240z"/>
</g>
</svg>
